*********************** SCF CYCLE ITER #   12 ************************
 etot  = -7.92933294E+00 abs_ev   =  2.51E-07 rel_ev   =  1.02E-06
 ediff =        3.50E-07 abs_dens =  1.09E-06 rel_dens =  1.36E-07
Matrix vector products:     69
Converged eigenvectors:     10

#  State  KPoint  Eigenvalue [H]  Occupation    Error
      1       1       -0.257170    2.000000   ( 4.6E-08)
      1       2       -0.184858    2.000000   ( 8.4E-08)
      2       2       -0.079342    2.000000   ( 6.6E-08)
      2       1        0.010753    2.000000   ( 6.1E-08)
      3       2        0.023125    2.000000   ( 6.3E-08)
      4       2        0.073567    2.000000   ( 8.7E-08)
      3       1        0.127870    2.000000   ( 7.1E-08)
      4       1        0.127870    2.000000   ( 7.1E-08)
      5       2        0.208835    0.000000   ( 8.3E-08)
      5       1        0.231963    0.000000   ( 6.8E-08)

Density of states:

----------%--------------%--------------%------%------------------%---
----------%--------------%--------------%------%------------------%---
----------%--------------%--------------%------%------------------%---
----------%--------------%--------------%------%------%-----------%---
----------%--------------%--------------%------%------%-----------%---
----------%--------------%--------------%------%------%-----------%---
----------%--------------%--------------%------%------%-----------%---
%---------%--------------%------------%-%------%------%-----------%--%
%---------%--------------%------------%-%------%------%-----------%--%
%---------%--------------%------------%-%------%------%-----------%--%
                                                      ^


Elapsed time for SCF step    12:          0.03
**********************************************************************
