CalculationMode = gs
FromScratch = yes
UnitsOutput = ev_angstrom

%Coordinates
"C" | 0 | 0 | 0
%

%Species
"C" | species_pseudo   | lmax | 1 | lloc | 1
%

spacing = 0.19*angstrom
radius = 5.0*angstrom

SpinComponents = polarized

ExtraStates = 2
%Occupations
1 | 2/3 | 2/3 | 2/3
1 | 0 | 0 | 0
%

XCFunctional = lda_x + lda_c_pz

EigenSolverTolerance = 1e-5

PoissonSolver = fft
PoissonFFTKernel = multipole_correction

ExperimentalFeatures = yes
ConvRelDens = 4e-6

FilterPotentials = filter_none

%StaticElectricField
  0.1 * eV/angstrom | 0 | 0
%

MixField = density
