CalculationMode = gs
FromScratch = yes

%Coordinates
"Cl" | 0 | 0 | 0
%

PseudopotentialSet = hgh_lda
SpinComponents = polarized

Spacing = 0.5
Radius = 7

XCFunctional = oep_x + lda_c_pz

%Occupations
 2/3 | 2/3 | 2/3
 1 | 1 | 1
%

ConvRelDens = 5e-6
ParKPoints = no
FilterPotentials = filter_none

# Fix the Poisson solver to avoid GPU-CPU discrepancy
PoissonSolver = isf

