*********************** SCF CYCLE ITER #    1 ************************
 etot  = -2.56449413E+02 abs_ev   =  1.98E-01 rel_ev   =  3.64E-03
 ediff =        9.42E+00 abs_dens =  2.26E-01 rel_dens =  4.52E-02
Matrix vector products:     25
Converged eigenvectors:      0

#  State  Eigenvalue [eV]  Occupation    Error
      1      -17.420070    2.000000   ( 1.2E-02)
      2       -6.481029    1.000000   ( 2.3E-02)
      3       -6.481029    1.000000   ( 2.3E-02)
      4       -6.481029    1.000000   ( 2.3E-02)

Density of states:

---------------------------------------------------------------------%
---------------------------------------------------------------------%
---------------------------------------------------------------------%
---------------------------------------------------------------------%
---------------------------------------------------------------------%
---------------------------------------------------------------------%
---------------------------------------------------------------------%
%--------------------------------------------------------------------%
%--------------------------------------------------------------------%
%--------------------------------------------------------------------%
                                                                     ^


Elapsed time for SCF step     1:          0.17
**********************************************************************
