CalculationMode = td
ExperimentalFeatures = yes
FromScratch = yes

bond_length = 2.4

%Coordinates
 "C" |  -bond_length/2 |  0.0 |  0.0
 "C" |   bond_length/2 |  0.0 |  0.0
%

%Velocities
 "C" |  0.001 | 0.0 | 0.0
 "C" | -0.001 | 0.0 | 0.0
%

Spacing = 0.6

Radius = 6

TDDynamics = bo

TDTimeStep = 10.0

TDMaxSteps = 4

ScaLAPACKCompatible = yes

ParDomains = no

MixField = density

TDMultipoleLmax = 0


PoissonSolver = isf
