# -*- coding: utf-8 mode: shell-script -*-

CalculationMode = gs

FromScratch = yes

PseudopotentialSet = hgh_lda

%Coordinates
  "Ar" | 0 | 0 | 0
%

spacing = 0.34
radius = 10.0

XCFunctional = lda_x + lda_c_xalpha
XAlpha = 2/3
SICCorrection = sic_pz
OEPLevel = oep_kli

Mixing = 0.2
ExperimentalFeatures = yes
ConvRelDens = 5e-7
EigensolverMaxIter = 50
EigensolverTolerance = 1e-8
CGEnergyChangeThreshold = 1e-2
MaximumIter = 300

MeshPartitionPackage = metis

SCDMforPZSIC = yes
