FromScratch=yes
CalculationMode = gs
PeriodicDimensions = 3
ExperimentalFeatures = yes
BoxShape = parallelepiped
%LatticeParameters
 1.0000000000E+00 | 1.0000000000E+00 | 1.0000000000E+00
%
%LatticeVectors
 -3.5000000000E+00 | 3.5000000000E+00 | 4.5000000000E+00
 3.5000000000E+00 | -3.5000000000E+00 | 4.5000000000E+00
 3.5000000000E+00 | 3.5000000000E+00 | -4.5000000000E+00
%
Spacing = 0.8
TheoryLevel = independent_particles
MaximumIter = 0
LCAOStart = lcao_none
FilterPotentials = filter_none
%KpointsGrid
 4 | 4 | 4
%
KPointsUseSymmetries = yes
%ReducedCoordinates
"H" | 2.6000000000E-01 | 2.8000000000E-01 | 3.2000000000E-01
"H" | 9.6000000000E-01 | 9.4000000000E-01 | 6.8000000000E-01
"H" | 3.0000000000E-02 | 2.1000000000E-01 | 5.2000000000E-01
"H" | 6.9000000000E-01 | 5.1000000000E-01 | 4.8000000000E-01
"H" | 7.9000000000E-01 | 9.7000000000E-01 | 4.8000000000E-01
"H" | 4.9000000000E-01 | 9.7000000000E-01 | 1.8000000000E-01
"H" | 4.9000000000E-01 | 3.1000000000E-01 | 5.2000000000E-01
"H" | 7.9000000000E-01 | 3.1000000000E-01 | 8.2000000000E-01
"H" | 7.2000000000E-01 | 7.4000000000E-01 | 6.8000000000E-01
"H" | 7.2000000000E-01 | 4.0000000000E-02 | 9.8000000000E-01
"H" | 6.0000000000E-02 | 4.0000000000E-02 | 3.2000000000E-01
"H" | 6.0000000000E-02 | 7.4000000000E-01 | 2.0000000000E-02
"H" | 9.6000000000E-01 | 2.8000000000E-01 | 2.0000000000E-02
"H" | 2.6000000000E-01 | 9.4000000000E-01 | 9.8000000000E-01
"H" | 3.0000000000E-02 | 5.1000000000E-01 | 8.2000000000E-01
"H" | 6.9000000000E-01 | 2.1000000000E-01 | 1.8000000000E-01
%
